problem_name,min_corr_sub_cl
END1ND2ND3ND4W0,[]
END1ND2ND3ND4W1,[]
END1ND2ND3ND4W2,"[[5, -7], [6, -7], [1, -5], [6, -7], [1, -5], [3, -6], [3, -6], [5, -7]]"
END1ND2ND3ND4W3,"[[5, -7], [1, -5]]"
END1ND2ND3ND4W4,[]
END1ND2ND3ND4W5,"[[5, -7], [6, -7], [2, -5], [6, -7], [2, -4], [2, -4], [2, -5], [2, -5], [4, -6], [4, -6], [5, -7], [2, -4], [2, -4], [5, -7]]"
END1ND2ND3ND4W6,[]
END1ND2ND3ND4W7,[]
END1ND2ND3W0,"[[5, 7], [6, 7], [1, -5], [2, -5], [6, 7], [1, -5], [2, -5], [3, -6], [4, -6], [2, -4], [2, -4], [1, -5], [2, -5], [3, -6], [2, -4], [2, -4], [3, -6], [5, 7], [3, -6], [4, -6], [5, 7]]"
END1ND2ND3W1,"[[5, 7], [6, 7], [1, -5], [2, -5], [6, 7], [1, -5], [2, -5], [4, -6], [2, -4], [2, -4], [1, -5], [2, -5], [2, -4], [2, -4], [5, 7], [4, -6], [5, 7]]"
END1ND2ND3W2,[]
END1ND2ND3W3,[]
END1ND2ND3W4,"[[5, 7], [6, 7], [2, -5], [6, 7], [2, -4], [2, -4], [2, -5], [3, -6], [2, -5], [3, -6], [4, -6], [3, -6], [4, -6], [5, 7], [2, -4], [2, -4], [3, -6], [5, 7]]"
END1ND2ND3W5,[]
END1ND2ND3W6,"[[6, 7], [3, -6]]"
END1ND2ND3W7,"[[-5, -6, -7], [-2, -2, 4], [-1, -2, 5], [-3, -4, 6]]"
END1ND2ND4W0,[]
END1ND2ND4W1,[]
END1ND2ND4W2,"[[5, -7], [1, -5]]"
END1ND2ND4W3,"[[5, -7], [6, -7], [1, -5], [6, -7], [-2, -2, 4], [1, -5], [1, -5], [-3, -4, -6], [-2, -2, 4], [5, -7], [-3, -4, -6], [5, -7]]"
END1ND2ND4W4,[]
END1ND2ND4W5,"[[5, -7], [2, -5]]"
END1ND2ND4W6,"[[-5, -6, 7], [-1, -2, 5], [3, 6]]"
END1ND2ND4W7,"[[6, -7], [-2, -2, 4], [-3, -4, -6]]"
END1ND2W0,"[[5, 7], [1, -5], [2, -5]]"
END1ND2W1,"[[5, 7], [1, -5], [2, -5]]"
END1ND2W2,[]
END1ND2W3,[]
END1ND2W4,"[[5, 7], [2, -5]]"
END1ND2W5,[]
END1ND2W6,[]
END1ND2W7,[]
END1ND3ND4W0,[]
END1ND3ND4W1,[]
END1ND3ND4W2,"[[6, -7], [3, -6]]"
END1ND3ND4W3,[]
END1ND3ND4W4,[]
END1ND3ND4W5,"[[6, -7], [2, -4], [2, -4], [4, -6]]"
END1ND3ND4W6,[]
END1ND3ND4W7,"[[5, -7], [-1, -2, -5]]"
END1ND3W0,"[[6, 7], [2, -4], [2, -4], [3, -6], [3, -6], [4, -6]]"
END1ND3W1,"[[6, 7], [2, -4], [2, -4], [4, -6]]"
END1ND3W2,[]
END1ND3W3,"[[-5, -6, -7], [-2, -2, 4], [1, 5], [-3, -4, 6]]"
END1ND3W4,"[[6, 7], [2, -4], [2, -4], [3, -6], [3, -6], [4, -6]]"
END1ND3W5,[]
END1ND3W6,"[[5, 7], [6, 7], [-1, -2, -5], [6, 7], [-1, -2, -5], [3, -6], [3, -6], [5, 7]]"
END1ND3W7,[]
END1ND4W0,"[[-5, -6, 7], [1, 5], [2, 5], [2, -4], [2, -4], [3, 6], [3, 6], [4, 6]]"
END1ND4W1,"[[4, 6], [2, -4], [2, -4], [1, 5], [2, 5], [-5, -6, 7]]"
END1ND4W2,[]
END1ND4W3,"[[6, -7], [-2, -2, 4], [-3, -4, -6]]"
END1ND4W4,"[[-5, -6, 7], [2, 5], [2, -4], [2, -4], [3, 6], [3, 6], [4, 6]]"
END1ND4W5,[]
END1ND4W6,[]
END1ND4W7,"[[5, -7], [6, -7], [-1, -2, -5], [6, -7], [-2, -2, 4], [-1, -2, -5], [-1, -2, -5], [-3, -4, -6], [-3, -4, -6], [5, -7], [-2, -2, 4], [5, -7]]"
END1W0,[]
END1W1,[]
END1W2,"[[-5, -6, -7], [1, 5], [3, 6]]"
END1W3,[]
END1W4,[]
END1W5,"[[4, 6], [2, -4], [2, -4], [2, 5], [-5, -6, -7]]"
END1W6,"[[5, 7], [-1, -2, -5]]"
END1W7,[]
END2ND3ND4W0,[]
END2ND3ND4W1,[]
END2ND3ND4W2,"[[5, -7], [6, -7], [1, -5], [6, -7], [-2, -2, -4], [1, -5], [3, -6], [1, -5], [3, -6], [4, -6], [-2, -2, -4], [3, -6], [5, -7], [3, -6], [4, -6], [5, -7]]"
END2ND3ND4W3,"[[5, -7], [6, -7], [1, -5], [6, -7], [-2, -2, -4], [1, -5], [1, -5], [4, -6], [4, -6], [5, -7], [-2, -2, -4], [5, -7]]"
END2ND3ND4W4,[]
END2ND3ND4W5,"[[5, -7], [2, -5]]"
END2ND3ND4W6,[]
END2ND3ND4W7,"[[6, -7], [-2, -2, -4], [4, -6]]"
END2ND3W0,"[[5, 7], [6, 7], [1, -5], [2, -5], [6, 7], [1, -5], [2, -5], [3, -6], [3, -6], [5, 7]]"
END2ND3W1,"[[5, 7], [1, -5], [2, -5]]"
END2ND3W2,[]
END2ND3W3,[]
END2ND3W4,"[[5, 7], [6, 7], [2, -5], [6, 7], [2, -5], [3, -6], [3, -6], [5, 7]]"
END2ND3W5,[]
END2ND3W6,"[[6, 7], [-2, -2, -4], [3, -6], [3, -6], [4, -6]]"
END2ND3W7,[]
END2ND4W0,[]
END2ND4W1,[]
END2ND4W2,"[[5, -7], [1, -5]]"
END2ND4W3,"[[5, -7], [1, -5]]"
END2ND4W4,[]
END2ND4W5,"[[5, -7], [6, -7], [2, -5], [6, -7], [2, 4], [2, 4], [2, -5], [2, -5], [-3, -4, -6], [-3, -4, -6], [5, -7], [2, 4], [2, 4], [5, -7]]"
END2ND4W6,"[[-5, -6, 7], [-1, -2, 5], [-2, -2, -4], [3, 6], [3, 6], [4, 6]]"
END2ND4W7,[]
END2W0,"[[5, 7], [1, -5], [2, -5]]"
END2W1,"[[5, 7], [6, 7], [1, -5], [2, -5], [6, 7], [2, 4], [2, 4], [1, -5], [2, -5], [1, -5], [2, -5], [-3, -4, -6], [-3, -4, -6], [5, 7], [2, 4], [2, 4], [5, 7]]"
END2W2,[]
END2W3,[]
END2W4,"[[5, 7], [2, -5]]"
END2W5,[]
END2W6,[]
END2W7,"[[4, 6], [-2, -2, -4], [-1, -2, 5], [-5, -6, -7]]"
END3ND4W0,[]
END3ND4W1,"[[-5, -6, 7], [2, 4], [2, 4], [1, 5], [2, 5], [-3, -4, 6]]"
END3ND4W2,"[[6, -7], [-2, -2, -4], [3, -6], [3, -6], [4, -6]]"
END3ND4W3,"[[6, -7], [-2, -2, -4], [4, -6]]"
END3ND4W4,[]
END3ND4W5,[]
END3ND4W6,[]
END3ND4W7,"[[5, -7], [6, -7], [-1, -2, -5], [6, -7], [-2, -2, -4], [-1, -2, -5], [-1, -2, -5], [4, -6], [4, -6], [5, -7], [-2, -2, -4], [5, -7]]"
END3W0,"[[6, 7], [3, -6]]"
END3W1,[]
END3W2,[]
END3W3,[]
END3W4,"[[6, 7], [3, -6]]"
END3W5,"[[-5, -6, -7], [2, 4], [2, 4], [2, 5], [-3, -4, 6]]"
END3W6,"[[5, 7], [6, 7], [-1, -2, -5], [6, 7], [-2, -2, -4], [-1, -2, -5], [3, -6], [-1, -2, -5], [3, -6], [4, -6], [-2, -2, -4], [3, -6], [5, 7], [3, -6], [4, -6], [5, 7]]"
END3W7,[]
END4W0,"[[-5, -6, 7], [1, 5], [2, 5], [3, 6]]"
END4W1,[]
END4W2,[]
END4W3,[]
END4W4,"[[-5, -6, 7], [2, 5], [3, 6]]"
END4W5,"[[6, -7], [2, 4], [2, 4], [-3, -4, -6]]"
END4W6,[]
END4W7,"[[5, -7], [-1, -2, -5]]"
ESATW0,[]
ESATW1,"[[6, 7], [2, 4], [2, 4], [-3, -4, -6]]"
ESATW2,"[[-5, -6, -7], [1, 5], [-2, -2, -4], [3, 6], [3, 6], [4, 6]]"
ESATW3,"[[4, 6], [-2, -2, -4], [1, 5], [-5, -6, -7]]"
ESATW4,[]
ESATW5,[]
ESATW6,"[[5, 7], [-1, -2, -5]]"
ESATW7,[]
